{
    "aspect_ratio": 1.0,
    "batch_size": 1,
    "beta1": 0.5,
    "checkpoint": "./drawing/zuse2/trained",
    "display_freq": 0,
    "flip": false,
    "gan_weight": 1.0,
    "input_dir": null,
    "l1_weight": 100.0,
    "lab_colorization": false,
    "lr": 0.0002,
    "max_epochs": null,
    "max_steps": null,
    "mode": "export",
    "ndf": 64,
    "ngf": 64,
    "output_dir": "./drawing/zuse2/zuse2",
    "output_filetype": "png",
    "progress_freq": 50,
    "save_freq": 1000,
    "scale_size": 256,
    "seed": 1793341056,
    "summary_freq": 100,
    "trace_freq": 0,
    "which_direction": "AtoB"
}